Modeling
…
diabetes_data

# A tibble: 253,680 × 22
   Diabetes_binary HighBP     HighChol            CholCheck    BMI Smoker Stroke
   <fct>           <fct>      <fct>               <fct>      <dbl> <fct>  <fct> 
 1 No diabetes     high BP    high cholesterol    cholester…    40 Yes    No    
 2 No diabetes     no high BP no high cholesterol no choles…    25 Yes    No    
 3 No diabetes     high BP    high cholesterol    cholester…    28 No     No    
 4 No diabetes     high BP    no high cholesterol cholester…    27 No     No    
 5 No diabetes     high BP    high cholesterol    cholester…    24 No     No    
 6 No diabetes     high BP    high cholesterol    cholester…    25 Yes    No    
 7 No diabetes     high BP    no high cholesterol cholester…    30 Yes    No    
 8 No diabetes     high BP    high cholesterol    cholester…    25 Yes    No    
 9 Diabetes        high BP    high cholesterol    cholester…    30 Yes    No    
10 No diabetes     no high BP no high cholesterol cholester…    24 No     No    
# ℹ 253,670 more rows
# ℹ 15 more variables: HeartDiseaseorAttack <fct>, PhysActivity <fct>,
#   Fruits <fct>, Veggies <fct>, HvyAlcoholConsump <fct>, AnyHealthcare <fct>,
#   NoDocbcCost <fct>, GenHlth <fct>, MentHlth <dbl>, PhysHlth <dbl>,
#   DiffWalk <fct>, Sex <fct>, Age <fct>, Education <fct>, Income <fct>
…
